{
  "name": "zaaksysteem-server-json2csv",
  "version": "1.0.0",
  "dependencies": {
    "align-text": {
      "version": "0.1.4",
      "from": "align-text@>=0.1.3 <0.2.0",
      "resolved": "https://registry.npmjs.org/align-text/-/align-text-0.1.4.tgz"
    },
    "amdefine": {
      "version": "1.0.0",
      "from": "amdefine@>=0.0.4",
      "resolved": "https://registry.npmjs.org/amdefine/-/amdefine-1.0.0.tgz"
    },
    "ansi-escapes": {
      "version": "1.4.0",
      "from": "ansi-escapes@>=1.1.0 <2.0.0",
      "resolved": "https://registry.npmjs.org/ansi-escapes/-/ansi-escapes-1.4.0.tgz"
    },
    "ansi-regex": {
      "version": "2.0.0",
      "from": "ansi-regex@>=2.0.0 <3.0.0",
      "resolved": "https://registry.npmjs.org/ansi-regex/-/ansi-regex-2.0.0.tgz"
    },
    "ansi-styles": {
      "version": "2.2.1",
      "from": "ansi-styles@>=2.2.1 <3.0.0",
      "resolved": "https://registry.npmjs.org/ansi-styles/-/ansi-styles-2.2.1.tgz"
    },
    "argparse": {
      "version": "1.0.7",
      "from": "argparse@>=1.0.2 <2.0.0",
      "resolved": "https://registry.npmjs.org/argparse/-/argparse-1.0.7.tgz"
    },
    "array-union": {
      "version": "1.0.1",
      "from": "array-union@>=1.0.1 <2.0.0",
      "resolved": "https://registry.npmjs.org/array-union/-/array-union-1.0.1.tgz"
    },
    "array-uniq": {
      "version": "1.0.2",
      "from": "array-uniq@>=1.0.1 <2.0.0",
      "resolved": "https://registry.npmjs.org/array-uniq/-/array-uniq-1.0.2.tgz"
    },
    "arrify": {
      "version": "1.0.1",
      "from": "arrify@>=1.0.0 <2.0.0",
      "resolved": "https://registry.npmjs.org/arrify/-/arrify-1.0.1.tgz"
    },
    "async": {
      "version": "1.5.2",
      "from": "async@>=1.4.0 <2.0.0",
      "resolved": "https://registry.npmjs.org/async/-/async-1.5.2.tgz"
    },
    "balanced-match": {
      "version": "0.3.0",
      "from": "balanced-match@>=0.3.0 <0.4.0",
      "resolved": "https://registry.npmjs.org/balanced-match/-/balanced-match-0.3.0.tgz"
    },
    "brace-expansion": {
      "version": "1.1.3",
      "from": "brace-expansion@>=1.0.0 <2.0.0",
      "resolved": "https://registry.npmjs.org/brace-expansion/-/brace-expansion-1.1.3.tgz"
    },
    "camelcase": {
      "version": "1.2.1",
      "from": "camelcase@>=1.0.2 <2.0.0",
      "resolved": "https://registry.npmjs.org/camelcase/-/camelcase-1.2.1.tgz",
      "optional": true
    },
    "center-align": {
      "version": "0.1.3",
      "from": "center-align@>=0.1.1 <0.2.0",
      "resolved": "https://registry.npmjs.org/center-align/-/center-align-0.1.3.tgz",
      "optional": true
    },
    "chalk": {
      "version": "1.1.3",
      "from": "chalk@>=1.0.0 <2.0.0",
      "resolved": "https://registry.npmjs.org/chalk/-/chalk-1.1.3.tgz"
    },
    "cli-cursor": {
      "version": "1.0.2",
      "from": "cli-cursor@>=1.0.1 <2.0.0",
      "resolved": "https://registry.npmjs.org/cli-cursor/-/cli-cursor-1.0.2.tgz"
    },
    "cli-table": {
      "version": "0.3.1",
      "from": "cli-table@>=0.3.1 <0.4.0",
      "resolved": "https://registry.npmjs.org/cli-table/-/cli-table-0.3.1.tgz"
    },
    "cli-width": {
      "version": "1.1.1",
      "from": "cli-width@>=1.0.1 <2.0.0",
      "resolved": "https://registry.npmjs.org/cli-width/-/cli-width-1.1.1.tgz"
    },
    "cliui": {
      "version": "2.1.0",
      "from": "cliui@>=2.1.0 <3.0.0",
      "resolved": "https://registry.npmjs.org/cliui/-/cliui-2.1.0.tgz",
      "optional": true,
      "dependencies": {
        "wordwrap": {
          "version": "0.0.2",
          "from": "wordwrap@0.0.2",
          "resolved": "https://registry.npmjs.org/wordwrap/-/wordwrap-0.0.2.tgz",
          "optional": true
        }
      }
    },
    "code-point-at": {
      "version": "1.0.0",
      "from": "code-point-at@>=1.0.0 <2.0.0",
      "resolved": "https://registry.npmjs.org/code-point-at/-/code-point-at-1.0.0.tgz"
    },
    "colors": {
      "version": "1.0.3",
      "from": "colors@1.0.3",
      "resolved": "https://registry.npmjs.org/colors/-/colors-1.0.3.tgz"
    },
    "commander": {
      "version": "2.9.0",
      "from": "commander@>=2.8.1 <3.0.0",
      "resolved": "https://registry.npmjs.org/commander/-/commander-2.9.0.tgz"
    },
    "concat-map": {
      "version": "0.0.1",
      "from": "concat-map@0.0.1",
      "resolved": "https://registry.npmjs.org/concat-map/-/concat-map-0.0.1.tgz"
    },
    "concat-stream": {
      "version": "1.5.1",
      "from": "concat-stream@>=1.4.6 <2.0.0",
      "resolved": "https://registry.npmjs.org/concat-stream/-/concat-stream-1.5.1.tgz"
    },
    "core-util-is": {
      "version": "1.0.2",
      "from": "core-util-is@>=1.0.0 <1.1.0",
      "resolved": "https://registry.npmjs.org/core-util-is/-/core-util-is-1.0.2.tgz"
    },
    "d": {
      "version": "0.1.1",
      "from": "d@>=0.1.1 <0.2.0",
      "resolved": "https://registry.npmjs.org/d/-/d-0.1.1.tgz"
    },
    "debug": {
      "version": "2.2.0",
      "from": "debug@>=2.1.1 <3.0.0",
      "resolved": "https://registry.npmjs.org/debug/-/debug-2.2.0.tgz"
    },
    "decamelize": {
      "version": "1.2.0",
      "from": "decamelize@>=1.0.0 <2.0.0",
      "resolved": "https://registry.npmjs.org/decamelize/-/decamelize-1.2.0.tgz",
      "optional": true
    },
    "deep-is": {
      "version": "0.1.3",
      "from": "deep-is@>=0.1.3 <0.2.0",
      "resolved": "https://registry.npmjs.org/deep-is/-/deep-is-0.1.3.tgz"
    },
    "del": {
      "version": "2.2.0",
      "from": "del@>=2.0.2 <3.0.0",
      "resolved": "https://registry.npmjs.org/del/-/del-2.2.0.tgz"
    },
    "doctrine": {
      "version": "0.7.2",
      "from": "doctrine@>=0.7.1 <0.8.0",
      "resolved": "https://registry.npmjs.org/doctrine/-/doctrine-0.7.2.tgz",
      "dependencies": {
        "esutils": {
          "version": "1.1.6",
          "from": "esutils@>=1.1.6 <2.0.0",
          "resolved": "https://registry.npmjs.org/esutils/-/esutils-1.1.6.tgz"
        },
        "isarray": {
          "version": "0.0.1",
          "from": "isarray@0.0.1",
          "resolved": "https://registry.npmjs.org/isarray/-/isarray-0.0.1.tgz"
        }
      }
    },
    "es5-ext": {
      "version": "0.10.11",
      "from": "es5-ext@>=0.10.8 <0.11.0",
      "resolved": "https://registry.npmjs.org/es5-ext/-/es5-ext-0.10.11.tgz"
    },
    "es6-iterator": {
      "version": "2.0.0",
      "from": "es6-iterator@>=2.0.0 <3.0.0",
      "resolved": "https://registry.npmjs.org/es6-iterator/-/es6-iterator-2.0.0.tgz"
    },
    "es6-map": {
      "version": "0.1.3",
      "from": "es6-map@>=0.1.3 <0.2.0",
      "resolved": "https://registry.npmjs.org/es6-map/-/es6-map-0.1.3.tgz"
    },
    "es6-set": {
      "version": "0.1.4",
      "from": "es6-set@>=0.1.3 <0.2.0",
      "resolved": "https://registry.npmjs.org/es6-set/-/es6-set-0.1.4.tgz"
    },
    "es6-symbol": {
      "version": "3.0.2",
      "from": "es6-symbol@>=3.0.1 <3.1.0",
      "resolved": "https://registry.npmjs.org/es6-symbol/-/es6-symbol-3.0.2.tgz"
    },
    "es6-weak-map": {
      "version": "2.0.1",
      "from": "es6-weak-map@>=2.0.1 <3.0.0",
      "resolved": "https://registry.npmjs.org/es6-weak-map/-/es6-weak-map-2.0.1.tgz"
    },
    "escape-string-regexp": {
      "version": "1.0.5",
      "from": "escape-string-regexp@>=1.0.2 <2.0.0",
      "resolved": "https://registry.npmjs.org/escape-string-regexp/-/escape-string-regexp-1.0.5.tgz"
    },
    "escope": {
      "version": "3.6.0",
      "from": "escope@>=3.3.0 <4.0.0",
      "resolved": "https://registry.npmjs.org/escope/-/escope-3.6.0.tgz"
    },
    "eslint": {
      "version": "1.10.3",
      "from": "eslint@1.10.3",
      "resolved": "https://registry.npmjs.org/eslint/-/eslint-1.10.3.tgz"
    },
    "espree": {
      "version": "2.2.5",
      "from": "espree@>=2.2.4 <3.0.0",
      "resolved": "https://registry.npmjs.org/espree/-/espree-2.2.5.tgz"
    },
    "esrecurse": {
      "version": "4.1.0",
      "from": "esrecurse@>=4.1.0 <5.0.0",
      "resolved": "https://registry.npmjs.org/esrecurse/-/esrecurse-4.1.0.tgz",
      "dependencies": {
        "estraverse": {
          "version": "4.1.1",
          "from": "estraverse@>=4.1.0 <4.2.0",
          "resolved": "https://registry.npmjs.org/estraverse/-/estraverse-4.1.1.tgz"
        }
      }
    },
    "estraverse": {
      "version": "4.2.0",
      "from": "estraverse@>=4.1.1 <5.0.0",
      "resolved": "https://registry.npmjs.org/estraverse/-/estraverse-4.2.0.tgz"
    },
    "estraverse-fb": {
      "version": "1.3.1",
      "from": "estraverse-fb@>=1.3.1 <2.0.0",
      "resolved": "https://registry.npmjs.org/estraverse-fb/-/estraverse-fb-1.3.1.tgz"
    },
    "esutils": {
      "version": "2.0.2",
      "from": "esutils@>=2.0.2 <3.0.0",
      "resolved": "https://registry.npmjs.org/esutils/-/esutils-2.0.2.tgz"
    },
    "event-emitter": {
      "version": "0.3.4",
      "from": "event-emitter@>=0.3.4 <0.4.0",
      "resolved": "https://registry.npmjs.org/event-emitter/-/event-emitter-0.3.4.tgz"
    },
    "exit-hook": {
      "version": "1.1.1",
      "from": "exit-hook@>=1.0.0 <2.0.0",
      "resolved": "https://registry.npmjs.org/exit-hook/-/exit-hook-1.1.1.tgz"
    },
    "fast-levenshtein": {
      "version": "1.0.7",
      "from": "fast-levenshtein@>=1.0.6 <1.1.0",
      "resolved": "https://registry.npmjs.org/fast-levenshtein/-/fast-levenshtein-1.0.7.tgz"
    },
    "figures": {
      "version": "1.5.0",
      "from": "figures@>=1.3.5 <2.0.0",
      "resolved": "https://registry.npmjs.org/figures/-/figures-1.5.0.tgz"
    },
    "file-entry-cache": {
      "version": "1.2.4",
      "from": "file-entry-cache@>=1.1.1 <2.0.0",
      "resolved": "https://registry.npmjs.org/file-entry-cache/-/file-entry-cache-1.2.4.tgz"
    },
    "flat": {
      "version": "1.6.1",
      "from": "flat@>=1.6.0 <2.0.0",
      "resolved": "https://registry.npmjs.org/flat/-/flat-1.6.1.tgz"
    },
    "flat-cache": {
      "version": "1.0.10",
      "from": "flat-cache@>=1.0.9 <2.0.0",
      "resolved": "https://registry.npmjs.org/flat-cache/-/flat-cache-1.0.10.tgz"
    },
    "generate-function": {
      "version": "2.0.0",
      "from": "generate-function@>=2.0.0 <3.0.0",
      "resolved": "https://registry.npmjs.org/generate-function/-/generate-function-2.0.0.tgz"
    },
    "generate-object-property": {
      "version": "1.2.0",
      "from": "generate-object-property@>=1.1.0 <2.0.0",
      "resolved": "https://registry.npmjs.org/generate-object-property/-/generate-object-property-1.2.0.tgz"
    },
    "glob": {
      "version": "5.0.15",
      "from": "glob@>=5.0.14 <6.0.0",
      "resolved": "https://registry.npmjs.org/glob/-/glob-5.0.15.tgz"
    },
    "globals": {
      "version": "8.18.0",
      "from": "globals@>=8.11.0 <9.0.0",
      "resolved": "https://registry.npmjs.org/globals/-/globals-8.18.0.tgz"
    },
    "globby": {
      "version": "4.0.0",
      "from": "globby@>=4.0.0 <5.0.0",
      "resolved": "https://registry.npmjs.org/globby/-/globby-4.0.0.tgz",
      "dependencies": {
        "glob": {
          "version": "6.0.4",
          "from": "glob@>=6.0.1 <7.0.0",
          "resolved": "https://registry.npmjs.org/glob/-/glob-6.0.4.tgz"
        }
      }
    },
    "graceful-fs": {
      "version": "4.1.3",
      "from": "graceful-fs@>=4.1.2 <5.0.0",
      "resolved": "https://registry.npmjs.org/graceful-fs/-/graceful-fs-4.1.3.tgz"
    },
    "graceful-readlink": {
      "version": "1.0.1",
      "from": "graceful-readlink@>=1.0.0",
      "resolved": "https://registry.npmjs.org/graceful-readlink/-/graceful-readlink-1.0.1.tgz"
    },
    "handlebars": {
      "version": "4.0.5",
      "from": "handlebars@>=4.0.0 <5.0.0",
      "resolved": "https://registry.npmjs.org/handlebars/-/handlebars-4.0.5.tgz"
    },
    "has-ansi": {
      "version": "2.0.0",
      "from": "has-ansi@>=2.0.0 <3.0.0",
      "resolved": "https://registry.npmjs.org/has-ansi/-/has-ansi-2.0.0.tgz"
    },
    "inflight": {
      "version": "1.0.4",
      "from": "inflight@>=1.0.4 <2.0.0",
      "resolved": "https://registry.npmjs.org/inflight/-/inflight-1.0.4.tgz"
    },
    "inherits": {
      "version": "2.0.1",
      "from": "inherits@>=2.0.1 <2.1.0",
      "resolved": "https://registry.npmjs.org/inherits/-/inherits-2.0.1.tgz"
    },
    "inquirer": {
      "version": "0.11.4",
      "from": "inquirer@>=0.11.0 <0.12.0",
      "resolved": "https://registry.npmjs.org/inquirer/-/inquirer-0.11.4.tgz"
    },
    "is-buffer": {
      "version": "1.1.3",
      "from": "is-buffer@>=1.0.2 <2.0.0",
      "resolved": "https://registry.npmjs.org/is-buffer/-/is-buffer-1.1.3.tgz"
    },
    "is-fullwidth-code-point": {
      "version": "1.0.0",
      "from": "is-fullwidth-code-point@>=1.0.0 <2.0.0",
      "resolved": "https://registry.npmjs.org/is-fullwidth-code-point/-/is-fullwidth-code-point-1.0.0.tgz"
    },
    "is-my-json-valid": {
      "version": "2.13.1",
      "from": "is-my-json-valid@>=2.10.0 <3.0.0",
      "resolved": "https://registry.npmjs.org/is-my-json-valid/-/is-my-json-valid-2.13.1.tgz"
    },
    "is-path-cwd": {
      "version": "1.0.0",
      "from": "is-path-cwd@>=1.0.0 <2.0.0",
      "resolved": "https://registry.npmjs.org/is-path-cwd/-/is-path-cwd-1.0.0.tgz"
    },
    "is-path-in-cwd": {
      "version": "1.0.0",
      "from": "is-path-in-cwd@>=1.0.0 <2.0.0",
      "resolved": "https://registry.npmjs.org/is-path-in-cwd/-/is-path-in-cwd-1.0.0.tgz"
    },
    "is-path-inside": {
      "version": "1.0.0",
      "from": "is-path-inside@>=1.0.0 <2.0.0",
      "resolved": "https://registry.npmjs.org/is-path-inside/-/is-path-inside-1.0.0.tgz"
    },
    "is-property": {
      "version": "1.0.2",
      "from": "is-property@>=1.0.0 <2.0.0",
      "resolved": "https://registry.npmjs.org/is-property/-/is-property-1.0.2.tgz"
    },
    "is-resolvable": {
      "version": "1.0.0",
      "from": "is-resolvable@>=1.0.0 <2.0.0",
      "resolved": "https://registry.npmjs.org/is-resolvable/-/is-resolvable-1.0.0.tgz"
    },
    "isarray": {
      "version": "1.0.0",
      "from": "isarray@>=1.0.0 <1.1.0",
      "resolved": "https://registry.npmjs.org/isarray/-/isarray-1.0.0.tgz"
    },
    "js-yaml": {
      "version": "3.4.5",
      "from": "js-yaml@3.4.5",
      "resolved": "https://registry.npmjs.org/js-yaml/-/js-yaml-3.4.5.tgz",
      "dependencies": {
        "esprima": {
          "version": "2.7.2",
          "from": "esprima@>=2.6.0 <3.0.0",
          "resolved": "https://registry.npmjs.org/esprima/-/esprima-2.7.2.tgz"
        }
      }
    },
    "json-stable-stringify": {
      "version": "1.0.1",
      "from": "json-stable-stringify@>=1.0.0 <2.0.0",
      "resolved": "https://registry.npmjs.org/json-stable-stringify/-/json-stable-stringify-1.0.1.tgz"
    },
    "json2csv": {
      "version": "3.2.0",
      "from": "json2csv@3.2.0",
      "resolved": "https://registry.npmjs.org/json2csv/-/json2csv-3.2.0.tgz"
    },
    "jsonify": {
      "version": "0.0.0",
      "from": "jsonify@>=0.0.0 <0.1.0",
      "resolved": "https://registry.npmjs.org/jsonify/-/jsonify-0.0.0.tgz"
    },
    "jsonpointer": {
      "version": "2.0.0",
      "from": "jsonpointer@2.0.0",
      "resolved": "https://registry.npmjs.org/jsonpointer/-/jsonpointer-2.0.0.tgz"
    },
    "kind-of": {
      "version": "3.0.2",
      "from": "kind-of@>=3.0.2 <4.0.0",
      "resolved": "https://registry.npmjs.org/kind-of/-/kind-of-3.0.2.tgz"
    },
    "lazy-cache": {
      "version": "1.0.3",
      "from": "lazy-cache@>=1.0.3 <2.0.0",
      "resolved": "https://registry.npmjs.org/lazy-cache/-/lazy-cache-1.0.3.tgz",
      "optional": true
    },
    "levn": {
      "version": "0.2.5",
      "from": "levn@>=0.2.5 <0.3.0",
      "resolved": "https://registry.npmjs.org/levn/-/levn-0.2.5.tgz"
    },
    "lodash": {
      "version": "3.10.1",
      "from": "lodash@3.10.1",
      "resolved": "https://registry.npmjs.org/lodash/-/lodash-3.10.1.tgz"
    },
    "lodash._arraycopy": {
      "version": "3.0.0",
      "from": "lodash._arraycopy@>=3.0.0 <4.0.0",
      "resolved": "https://registry.npmjs.org/lodash._arraycopy/-/lodash._arraycopy-3.0.0.tgz"
    },
    "lodash._arrayeach": {
      "version": "3.0.0",
      "from": "lodash._arrayeach@>=3.0.0 <4.0.0",
      "resolved": "https://registry.npmjs.org/lodash._arrayeach/-/lodash._arrayeach-3.0.0.tgz"
    },
    "lodash._arraymap": {
      "version": "3.0.0",
      "from": "lodash._arraymap@>=3.0.0 <4.0.0",
      "resolved": "https://registry.npmjs.org/lodash._arraymap/-/lodash._arraymap-3.0.0.tgz"
    },
    "lodash._baseassign": {
      "version": "3.2.0",
      "from": "lodash._baseassign@>=3.0.0 <4.0.0",
      "resolved": "https://registry.npmjs.org/lodash._baseassign/-/lodash._baseassign-3.2.0.tgz"
    },
    "lodash._baseclone": {
      "version": "3.3.0",
      "from": "lodash._baseclone@>=3.0.0 <4.0.0",
      "resolved": "https://registry.npmjs.org/lodash._baseclone/-/lodash._baseclone-3.3.0.tgz"
    },
    "lodash._basecopy": {
      "version": "3.0.1",
      "from": "lodash._basecopy@>=3.0.0 <4.0.0",
      "resolved": "https://registry.npmjs.org/lodash._basecopy/-/lodash._basecopy-3.0.1.tgz"
    },
    "lodash._basedifference": {
      "version": "3.0.3",
      "from": "lodash._basedifference@>=3.0.0 <4.0.0",
      "resolved": "https://registry.npmjs.org/lodash._basedifference/-/lodash._basedifference-3.0.3.tgz"
    },
    "lodash._baseflatten": {
      "version": "3.1.4",
      "from": "lodash._baseflatten@>=3.0.0 <4.0.0",
      "resolved": "https://registry.npmjs.org/lodash._baseflatten/-/lodash._baseflatten-3.1.4.tgz"
    },
    "lodash._basefor": {
      "version": "3.0.3",
      "from": "lodash._basefor@>=3.0.0 <4.0.0",
      "resolved": "https://registry.npmjs.org/lodash._basefor/-/lodash._basefor-3.0.3.tgz"
    },
    "lodash._baseget": {
      "version": "3.7.2",
      "from": "lodash._baseget@>=3.0.0 <4.0.0",
      "resolved": "https://registry.npmjs.org/lodash._baseget/-/lodash._baseget-3.7.2.tgz"
    },
    "lodash._baseindexof": {
      "version": "3.1.0",
      "from": "lodash._baseindexof@>=3.0.0 <4.0.0",
      "resolved": "https://registry.npmjs.org/lodash._baseindexof/-/lodash._baseindexof-3.1.0.tgz"
    },
    "lodash._bindcallback": {
      "version": "3.0.1",
      "from": "lodash._bindcallback@>=3.0.0 <4.0.0",
      "resolved": "https://registry.npmjs.org/lodash._bindcallback/-/lodash._bindcallback-3.0.1.tgz"
    },
    "lodash._cacheindexof": {
      "version": "3.0.2",
      "from": "lodash._cacheindexof@>=3.0.0 <4.0.0",
      "resolved": "https://registry.npmjs.org/lodash._cacheindexof/-/lodash._cacheindexof-3.0.2.tgz"
    },
    "lodash._createassigner": {
      "version": "3.1.1",
      "from": "lodash._createassigner@>=3.0.0 <4.0.0",
      "resolved": "https://registry.npmjs.org/lodash._createassigner/-/lodash._createassigner-3.1.1.tgz"
    },
    "lodash._createcache": {
      "version": "3.1.2",
      "from": "lodash._createcache@>=3.0.0 <4.0.0",
      "resolved": "https://registry.npmjs.org/lodash._createcache/-/lodash._createcache-3.1.2.tgz"
    },
    "lodash._getnative": {
      "version": "3.9.1",
      "from": "lodash._getnative@>=3.0.0 <4.0.0",
      "resolved": "https://registry.npmjs.org/lodash._getnative/-/lodash._getnative-3.9.1.tgz"
    },
    "lodash._isiterateecall": {
      "version": "3.0.9",
      "from": "lodash._isiterateecall@>=3.0.0 <4.0.0",
      "resolved": "https://registry.npmjs.org/lodash._isiterateecall/-/lodash._isiterateecall-3.0.9.tgz"
    },
    "lodash._pickbyarray": {
      "version": "3.0.2",
      "from": "lodash._pickbyarray@>=3.0.0 <4.0.0",
      "resolved": "https://registry.npmjs.org/lodash._pickbyarray/-/lodash._pickbyarray-3.0.2.tgz"
    },
    "lodash._pickbycallback": {
      "version": "3.0.0",
      "from": "lodash._pickbycallback@>=3.0.0 <4.0.0",
      "resolved": "https://registry.npmjs.org/lodash._pickbycallback/-/lodash._pickbycallback-3.0.0.tgz"
    },
    "lodash._topath": {
      "version": "3.8.1",
      "from": "lodash._topath@>=3.0.0 <4.0.0",
      "resolved": "https://registry.npmjs.org/lodash._topath/-/lodash._topath-3.8.1.tgz"
    },
    "lodash.clonedeep": {
      "version": "3.0.2",
      "from": "lodash.clonedeep@>=3.0.1 <4.0.0",
      "resolved": "https://registry.npmjs.org/lodash.clonedeep/-/lodash.clonedeep-3.0.2.tgz"
    },
    "lodash.get": {
      "version": "3.7.0",
      "from": "lodash.get@>=3.7.0 <4.0.0",
      "resolved": "https://registry.npmjs.org/lodash.get/-/lodash.get-3.7.0.tgz"
    },
    "lodash.isarguments": {
      "version": "3.0.8",
      "from": "lodash.isarguments@>=3.0.0 <4.0.0",
      "resolved": "https://registry.npmjs.org/lodash.isarguments/-/lodash.isarguments-3.0.8.tgz"
    },
    "lodash.isarray": {
      "version": "3.0.4",
      "from": "lodash.isarray@>=3.0.0 <4.0.0",
      "resolved": "https://registry.npmjs.org/lodash.isarray/-/lodash.isarray-3.0.4.tgz"
    },
    "lodash.isplainobject": {
      "version": "3.2.0",
      "from": "lodash.isplainobject@>=3.0.0 <4.0.0",
      "resolved": "https://registry.npmjs.org/lodash.isplainobject/-/lodash.isplainobject-3.2.0.tgz"
    },
    "lodash.istypedarray": {
      "version": "3.0.6",
      "from": "lodash.istypedarray@>=3.0.0 <4.0.0",
      "resolved": "https://registry.npmjs.org/lodash.istypedarray/-/lodash.istypedarray-3.0.6.tgz"
    },
    "lodash.keys": {
      "version": "3.1.2",
      "from": "lodash.keys@>=3.0.0 <4.0.0",
      "resolved": "https://registry.npmjs.org/lodash.keys/-/lodash.keys-3.1.2.tgz"
    },
    "lodash.keysin": {
      "version": "3.0.8",
      "from": "lodash.keysin@>=3.0.0 <4.0.0",
      "resolved": "https://registry.npmjs.org/lodash.keysin/-/lodash.keysin-3.0.8.tgz"
    },
    "lodash.merge": {
      "version": "3.3.2",
      "from": "lodash.merge@>=3.3.2 <4.0.0",
      "resolved": "https://registry.npmjs.org/lodash.merge/-/lodash.merge-3.3.2.tgz"
    },
    "lodash.omit": {
      "version": "3.1.0",
      "from": "lodash.omit@>=3.1.0 <4.0.0",
      "resolved": "https://registry.npmjs.org/lodash.omit/-/lodash.omit-3.1.0.tgz"
    },
    "lodash.restparam": {
      "version": "3.6.1",
      "from": "lodash.restparam@>=3.0.0 <4.0.0",
      "resolved": "https://registry.npmjs.org/lodash.restparam/-/lodash.restparam-3.6.1.tgz"
    },
    "lodash.toplainobject": {
      "version": "3.0.0",
      "from": "lodash.toplainobject@>=3.0.0 <4.0.0",
      "resolved": "https://registry.npmjs.org/lodash.toplainobject/-/lodash.toplainobject-3.0.0.tgz"
    },
    "longest": {
      "version": "1.0.1",
      "from": "longest@>=1.0.1 <2.0.0",
      "resolved": "https://registry.npmjs.org/longest/-/longest-1.0.1.tgz"
    },
    "minimatch": {
      "version": "3.0.0",
      "from": "minimatch@>=3.0.0 <4.0.0",
      "resolved": "https://registry.npmjs.org/minimatch/-/minimatch-3.0.0.tgz"
    },
    "minimist": {
      "version": "1.2.0",
      "from": "minimist@1.2.0",
      "resolved": "https://registry.npmjs.org/minimist/-/minimist-1.2.0.tgz"
    },
    "mkdirp": {
      "version": "0.5.1",
      "from": "mkdirp@>=0.5.0 <0.6.0",
      "resolved": "https://registry.npmjs.org/mkdirp/-/mkdirp-0.5.1.tgz",
      "dependencies": {
        "minimist": {
          "version": "0.0.8",
          "from": "minimist@0.0.8",
          "resolved": "https://registry.npmjs.org/minimist/-/minimist-0.0.8.tgz"
        }
      }
    },
    "ms": {
      "version": "0.7.1",
      "from": "ms@0.7.1",
      "resolved": "https://registry.npmjs.org/ms/-/ms-0.7.1.tgz"
    },
    "mute-stream": {
      "version": "0.0.5",
      "from": "mute-stream@0.0.5",
      "resolved": "https://registry.npmjs.org/mute-stream/-/mute-stream-0.0.5.tgz"
    },
    "number-is-nan": {
      "version": "1.0.0",
      "from": "number-is-nan@>=1.0.0 <2.0.0",
      "resolved": "https://registry.npmjs.org/number-is-nan/-/number-is-nan-1.0.0.tgz"
    },
    "object-assign": {
      "version": "4.0.1",
      "from": "object-assign@>=4.0.1 <5.0.0",
      "resolved": "https://registry.npmjs.org/object-assign/-/object-assign-4.0.1.tgz"
    },
    "once": {
      "version": "1.3.3",
      "from": "once@>=1.3.0 <2.0.0",
      "resolved": "https://registry.npmjs.org/once/-/once-1.3.3.tgz"
    },
    "onetime": {
      "version": "1.1.0",
      "from": "onetime@>=1.0.0 <2.0.0",
      "resolved": "https://registry.npmjs.org/onetime/-/onetime-1.1.0.tgz"
    },
    "optimist": {
      "version": "0.6.1",
      "from": "optimist@>=0.6.1 <0.7.0",
      "resolved": "https://registry.npmjs.org/optimist/-/optimist-0.6.1.tgz",
      "dependencies": {
        "minimist": {
          "version": "0.0.10",
          "from": "minimist@>=0.0.1 <0.1.0",
          "resolved": "https://registry.npmjs.org/minimist/-/minimist-0.0.10.tgz"
        }
      }
    },
    "optionator": {
      "version": "0.6.0",
      "from": "optionator@>=0.6.0 <0.7.0",
      "resolved": "https://registry.npmjs.org/optionator/-/optionator-0.6.0.tgz"
    },
    "os-homedir": {
      "version": "1.0.1",
      "from": "os-homedir@>=1.0.0 <2.0.0",
      "resolved": "https://registry.npmjs.org/os-homedir/-/os-homedir-1.0.1.tgz"
    },
    "path-is-absolute": {
      "version": "1.0.0",
      "from": "path-is-absolute@>=1.0.0 <2.0.0",
      "resolved": "https://registry.npmjs.org/path-is-absolute/-/path-is-absolute-1.0.0.tgz"
    },
    "path-is-inside": {
      "version": "1.0.1",
      "from": "path-is-inside@>=1.0.1 <2.0.0",
      "resolved": "https://registry.npmjs.org/path-is-inside/-/path-is-inside-1.0.1.tgz"
    },
    "pify": {
      "version": "2.3.0",
      "from": "pify@>=2.0.0 <3.0.0",
      "resolved": "https://registry.npmjs.org/pify/-/pify-2.3.0.tgz"
    },
    "pinkie": {
      "version": "2.0.4",
      "from": "pinkie@>=2.0.0 <3.0.0",
      "resolved": "https://registry.npmjs.org/pinkie/-/pinkie-2.0.4.tgz"
    },
    "pinkie-promise": {
      "version": "2.0.1",
      "from": "pinkie-promise@>=2.0.0 <3.0.0",
      "resolved": "https://registry.npmjs.org/pinkie-promise/-/pinkie-promise-2.0.1.tgz"
    },
    "prelude-ls": {
      "version": "1.1.2",
      "from": "prelude-ls@>=1.1.1 <1.2.0",
      "resolved": "https://registry.npmjs.org/prelude-ls/-/prelude-ls-1.1.2.tgz"
    },
    "process-nextick-args": {
      "version": "1.0.6",
      "from": "process-nextick-args@>=1.0.6 <1.1.0",
      "resolved": "https://registry.npmjs.org/process-nextick-args/-/process-nextick-args-1.0.6.tgz"
    },
    "read-json-sync": {
      "version": "1.1.1",
      "from": "read-json-sync@>=1.1.0 <2.0.0",
      "resolved": "https://registry.npmjs.org/read-json-sync/-/read-json-sync-1.1.1.tgz"
    },
    "readable-stream": {
      "version": "2.0.6",
      "from": "readable-stream@>=2.0.0 <2.1.0",
      "resolved": "https://registry.npmjs.org/readable-stream/-/readable-stream-2.0.6.tgz"
    },
    "readline2": {
      "version": "1.0.1",
      "from": "readline2@>=1.0.1 <2.0.0",
      "resolved": "https://registry.npmjs.org/readline2/-/readline2-1.0.1.tgz"
    },
    "repeat-string": {
      "version": "1.5.4",
      "from": "repeat-string@>=1.5.2 <2.0.0",
      "resolved": "https://registry.npmjs.org/repeat-string/-/repeat-string-1.5.4.tgz"
    },
    "restore-cursor": {
      "version": "1.0.1",
      "from": "restore-cursor@>=1.0.1 <2.0.0",
      "resolved": "https://registry.npmjs.org/restore-cursor/-/restore-cursor-1.0.1.tgz"
    },
    "right-align": {
      "version": "0.1.3",
      "from": "right-align@>=0.1.1 <0.2.0",
      "resolved": "https://registry.npmjs.org/right-align/-/right-align-0.1.3.tgz",
      "optional": true
    },
    "rimraf": {
      "version": "2.5.2",
      "from": "rimraf@>=2.2.8 <3.0.0",
      "resolved": "https://registry.npmjs.org/rimraf/-/rimraf-2.5.2.tgz",
      "dependencies": {
        "glob": {
          "version": "7.0.3",
          "from": "glob@>=7.0.0 <8.0.0",
          "resolved": "https://registry.npmjs.org/glob/-/glob-7.0.3.tgz"
        }
      }
    },
    "run-async": {
      "version": "0.1.0",
      "from": "run-async@>=0.1.0 <0.2.0",
      "resolved": "https://registry.npmjs.org/run-async/-/run-async-0.1.0.tgz"
    },
    "rx-lite": {
      "version": "3.1.2",
      "from": "rx-lite@>=3.1.2 <4.0.0",
      "resolved": "https://registry.npmjs.org/rx-lite/-/rx-lite-3.1.2.tgz"
    },
    "shelljs": {
      "version": "0.5.3",
      "from": "shelljs@>=0.5.3 <0.6.0",
      "resolved": "https://registry.npmjs.org/shelljs/-/shelljs-0.5.3.tgz"
    },
    "source-map": {
      "version": "0.4.4",
      "from": "source-map@>=0.4.4 <0.5.0",
      "resolved": "https://registry.npmjs.org/source-map/-/source-map-0.4.4.tgz"
    },
    "sprintf-js": {
      "version": "1.0.3",
      "from": "sprintf-js@>=1.0.2 <1.1.0",
      "resolved": "https://registry.npmjs.org/sprintf-js/-/sprintf-js-1.0.3.tgz"
    },
    "string_decoder": {
      "version": "0.10.31",
      "from": "string_decoder@>=0.10.0 <0.11.0",
      "resolved": "https://registry.npmjs.org/string_decoder/-/string_decoder-0.10.31.tgz"
    },
    "string-width": {
      "version": "1.0.1",
      "from": "string-width@>=1.0.1 <2.0.0",
      "resolved": "https://registry.npmjs.org/string-width/-/string-width-1.0.1.tgz"
    },
    "strip-ansi": {
      "version": "3.0.1",
      "from": "strip-ansi@>=3.0.0 <4.0.0",
      "resolved": "https://registry.npmjs.org/strip-ansi/-/strip-ansi-3.0.1.tgz"
    },
    "strip-json-comments": {
      "version": "1.0.4",
      "from": "strip-json-comments@>=1.0.1 <1.1.0",
      "resolved": "https://registry.npmjs.org/strip-json-comments/-/strip-json-comments-1.0.4.tgz"
    },
    "supports-color": {
      "version": "2.0.0",
      "from": "supports-color@>=2.0.0 <3.0.0",
      "resolved": "https://registry.npmjs.org/supports-color/-/supports-color-2.0.0.tgz"
    },
    "text-table": {
      "version": "0.2.0",
      "from": "text-table@>=0.2.0 <0.3.0",
      "resolved": "https://registry.npmjs.org/text-table/-/text-table-0.2.0.tgz"
    },
    "through": {
      "version": "2.3.8",
      "from": "through@>=2.3.6 <3.0.0",
      "resolved": "https://registry.npmjs.org/through/-/through-2.3.8.tgz"
    },
    "tryit": {
      "version": "1.0.2",
      "from": "tryit@>=1.0.1 <2.0.0",
      "resolved": "https://registry.npmjs.org/tryit/-/tryit-1.0.2.tgz"
    },
    "type-check": {
      "version": "0.3.2",
      "from": "type-check@>=0.3.1 <0.4.0",
      "resolved": "https://registry.npmjs.org/type-check/-/type-check-0.3.2.tgz"
    },
    "typedarray": {
      "version": "0.0.6",
      "from": "typedarray@>=0.0.5 <0.1.0",
      "resolved": "https://registry.npmjs.org/typedarray/-/typedarray-0.0.6.tgz"
    },
    "uglify-js": {
      "version": "2.6.2",
      "from": "uglify-js@>=2.6.0 <3.0.0",
      "resolved": "https://registry.npmjs.org/uglify-js/-/uglify-js-2.6.2.tgz",
      "optional": true,
      "dependencies": {
        "async": {
          "version": "0.2.10",
          "from": "async@>=0.2.6 <0.3.0",
          "resolved": "https://registry.npmjs.org/async/-/async-0.2.10.tgz",
          "optional": true
        },
        "source-map": {
          "version": "0.5.3",
          "from": "source-map@>=0.5.1 <0.6.0",
          "resolved": "https://registry.npmjs.org/source-map/-/source-map-0.5.3.tgz",
          "optional": true
        }
      }
    },
    "uglify-to-browserify": {
      "version": "1.0.2",
      "from": "uglify-to-browserify@>=1.0.0 <1.1.0",
      "resolved": "https://registry.npmjs.org/uglify-to-browserify/-/uglify-to-browserify-1.0.2.tgz",
      "optional": true
    },
    "user-home": {
      "version": "2.0.0",
      "from": "user-home@>=2.0.0 <3.0.0",
      "resolved": "https://registry.npmjs.org/user-home/-/user-home-2.0.0.tgz"
    },
    "util-deprecate": {
      "version": "1.0.2",
      "from": "util-deprecate@>=1.0.1 <1.1.0",
      "resolved": "https://registry.npmjs.org/util-deprecate/-/util-deprecate-1.0.2.tgz"
    },
    "window-size": {
      "version": "0.1.0",
      "from": "window-size@0.1.0",
      "resolved": "https://registry.npmjs.org/window-size/-/window-size-0.1.0.tgz",
      "optional": true
    },
    "wordwrap": {
      "version": "0.0.3",
      "from": "wordwrap@>=0.0.2 <0.1.0",
      "resolved": "https://registry.npmjs.org/wordwrap/-/wordwrap-0.0.3.tgz"
    },
    "wrappy": {
      "version": "1.0.1",
      "from": "wrappy@>=1.0.0 <2.0.0",
      "resolved": "https://registry.npmjs.org/wrappy/-/wrappy-1.0.1.tgz"
    },
    "write": {
      "version": "0.2.1",
      "from": "write@>=0.2.1 <0.3.0",
      "resolved": "https://registry.npmjs.org/write/-/write-0.2.1.tgz"
    },
    "xml-escape": {
      "version": "1.0.0",
      "from": "xml-escape@>=1.0.0 <1.1.0",
      "resolved": "https://registry.npmjs.org/xml-escape/-/xml-escape-1.0.0.tgz"
    },
    "xtend": {
      "version": "4.0.1",
      "from": "xtend@>=4.0.0 <5.0.0",
      "resolved": "https://registry.npmjs.org/xtend/-/xtend-4.0.1.tgz"
    },
    "yargs": {
      "version": "3.10.0",
      "from": "yargs@>=3.10.0 <3.11.0",
      "resolved": "https://registry.npmjs.org/yargs/-/yargs-3.10.0.tgz",
      "optional": true
    }
  }
}
