{
	"actions": [
		{
			"id": "actions",
			"label": "Acties",
			"type": "dropdown",
			"data": {
				"children": [
					{
						"id": "open",
						"label": "Openen",
						"type": "url",
						"data": {
							"url": "/intern/zaak/<[selectedItems[0].values['case.number']]>"
						},
						"when": "selectedItems.length===1"
					},
					{
						"id": "allocate",
						"label": "Toewijzing wijzigen",
						"type": "ezra-dialog",
						"data": {
							"url": "/bulk/update/allocation",
							"title": "Toewijziging wijzigen",
							"params": "<[getEzraDialogSelectionParameters(action)]>"
						}
					},
					{
						"id": "acquire",
						"label": "In behandeling nemen",
						"type": "ezra-dialog",
						"data": {
							"url": "/bulk/update/owner",
							"title": "In behandeling nemen",
							"params": "<[getEzraDialogSelectionParameters(action)]>"
						}
					},
					{
						"id": "suspend",
						"label": "Opschorten",
						"type": "ezra-dialog",
						"data": {
							"url": "/bulk/update/opschorten",
							"title": "Opschorten",
							"params": "<[getEzraDialogSelectionParameters(action)]>"
						}
					},
					{
						"id": "resume",
						"label": "Hervatten",
						"type": "ezra-dialog",
						"data": {
							"url": "/bulk/update/resume",
							"title": "Hervatten",
							"params": "<[getEzraDialogSelectionParameters(action)]>"
						}
					},
					{
						"id": "prolong",
						"label": "Termijn wijzigen",
						"type": "ezra-dialog",
						"data": {
							"url": "/bulk/update/verlengen",
							"title": "Termijn wijzigen",
							"params": "<[getEzraDialogSelectionParameters(action)]>"
						}
					},
					{
						"id": "relate",
						"label": "Relateren",
						"type": "ezra-dialog",
						"data": {
							"url": "/bulk/update/relatie",
							"title": "Relateren",
							"params": "<[getEzraDialogSelectionParameters(action)]>"
						}
					},
					{
						"id": "manage",
						"label": "Beheeracties",
						"type": "ezra-dialog",
						"data": {
							"url": "/bulk/update/set_settings",
							"title": "Beheeracties",
							"params": "<[getEzraDialogSelectionParameters(action)]>"
						}
					},
					{
						"id": "destroy",
						"label": "Vernietigen",
						"type": "ezra-dialog",
						"data": {
							"url": "/bulk/update/destroy",
							"title": "Vernietigen",
							"params": "<[getEzraDialogSelectionParameters(action)]>"
						}
					},
					{
						"id": "publish",
						"label": "Publiceren",
						"type": "ezra-dialog",
						"data": {
							"url": "/bulk/publish",
							"title": "Publiceren",
							"params": "<[getEzraDialogSelectionParameters(action)]>"
						}
					}
				]
			}
		},
		{
			"id": "export",
			"label": "Exporteren als",
			"type": "dropdown",
			"data": {
				"children": [
					{
						"id": "export_csv",
						"label": "CSV",
						"type": "download",
						"data": {
							"url": "<[getExportZql()]>",
							"params": {
								"zapi_format": "csv"
							}
						}
					},
					{
						"id": "export_excel",
						"label": "XLS",
						"type": "download",
						"data": {
							"url": "<[getExportZql()]>",
							"params": {
								"zapi_format": "xls"
							}
						}
					},
					{
						"id": "export_oocalc",
						"label": "OO Calc",
						"type": "download",
						"data": {
							"url": "<[getExportZql()]>",
							"params": {
								"zapi_format": "calc"
							}
						}
					},
					{
						"id": "export_doclist",
						"label": "Documentenlijst",
						"type": "download",
						"data": {
							"url": "/search/export/zql/documents?zql=<[getExportZql()]>"
						}
					},
					{
						"id": "overdrachtsbestand",
						"label": "Overdrachtsbestand",
						"type": "download",
						"data": {
							"url": "/api/object/search/export/?zql=<[getExportZql()]>"
						}
					}
				]
			}
		}
	],
	"chart": {
		"options": [
			{
				"value": null,
				"label": "Geen grafiek geselecteerd"
			},
			{
				"value": "status",
				"label": "Geregistreerd/afgehandeld"
			},
			{
				"value": "handling_time",
				"label": "Binnen afhandeltermijn/Buiten afhandeltermijn"
			},
			{
				"value": "average_handling_time_per_month",
				"label": "Gemiddelde behandeltijd per maand"
			},
            {
				"value": "cases_within_and_outside_term_per_month",
				"label": "Zaken binnen/buiten termijn per maand"
			}
		]
	},
	"filters": {
		"name": "searchWidgetForm",
		"options": {
			"autosave": true,
			"method": "GET"
		},
		"fieldsets": [
			{
				"name": "fulltext",
				"title": "Trefwoorden",
				"description": "",
				"fields": [
					{
						"name": "fulltext",
						"type": "text",
						"default": null
					}
				]
			},
			{
				"name": "status",
				"title": "Status",
				"description": "",
				"fields": [
					{
						"name": "case.status",
						"type": "checkbox-list",
						"data": {
							"maxVisible": 6,
							"options": [
								{
									"label": "Nieuw",
									"value": "new"
								},
								{
									"label": "In behandeling",
									"value": "open"
								},
								{
									"label": "Opgeschort",
									"value": "stalled"
								},
								{
									"label": "Afgehandeld",
									"value": "resolved"
								}
							]
						},
						"default": []
					}
				]
			},
			{
				"name": "case_type",
				"title": "Zaaktype",
				"description": "",
				"fields": [
					{
						"name": "case.casetype.id",
						"type": "spot-enlighter",
						"data": {
							"multi": true,
							"restrict": "casetype",
							"params": {
								"inactive": true
							},
							"resolve": "zaaktype_node_id.zaaktype_id",
							"label": "searchable_object_label"
						}
					}
				]
			},
			{
				"name": "kenmerken",
				"title": "Kenmerken",
				"description": "",
				"fields": [
					{
						"name": "attributes",
						"type": "attributes",
						"template": "/html/widget/search/form-field-attribute.html",
						"data": {
							"multi": true,
							"resolve": null
						},
						"default": {
							"attributes": [],
							"grouping": "and"
						}
					}
				]
			},
			{
				"name": "aanvrager",
				"title": "Aanvrager",
				"description": "",
				"fields": [
					{
						"name": "case.requestor.id",
						"type": "spot-enlighter",
						"data": {
							"restrict": "<[aanvrager_type]>",
							"label": "label||naam",
							"resolve": "'betrokkene-' + object_type + '-' + id",
							"multi": true
						}
					},
					{
						"name": "aanvrager_type",
						"type": "radio",
						"ignore": true,
						"data": {
							"options": [
								{
									"label": "Medewerker",
									"value": "contact/medewerker"
								},
								{
									"label": "Burger",
									"value": "contact/natuurlijk_persoon"
								},
								{
									"label": "Organisatie",
									"value": "contact/bedrijf"
								}
							]
						},
						"default": "natuurlijk_persoon"
					}
				]
			},
			{
				"name": "adres",
				"title": "Adres",
				"description": "",
				"fields": [
					{
						"name": "case.case_location",
						"type": "spot-enlighter",
						"data": {
							"restrict": "bag-mixed",
							"label": "label",
							"multi": true,
							"resolve": "id"
						}
					}
				],
				"resolve": "getAddress($values)"
			},
			{
				"name": "urgentie",
				"title": "Urgentie",
				"description": "",
				"fields": [
					{
						"name": "urgency()",
						"type": "checkbox-list",
						"data": {
							"options": [
								{
									"label": "Normaal",
									"value": "normal"
								},
								{
									"label": "Gemiddeld",
									"value": "medium"
								},
								{
									"label": "Hoog",
									"value": "high"
								},
								{
									"label": "Te laat",
									"value": "late"
								}
							]
						},
						"default": []
					}
				]
			},
			{
				"name": "resultaat",
				"title": "Resultaat",
				"description": "",
				"fields": [
					{
						"name": "case.result",
						"type": "checkbox-list",
						"data": {
							"options": "<[getResultOptions()]>"
						},
						"default": []
					}
				]
			},
			{
				"name": "afdeling",
				"title": "Afdeling",
				"description": "",
				"fields": [
					{
						"name": "case.route_ou$case.route_role",
						"type": "org-unit",
						"default": []
					}
				]
			},
			{
				"name": "behandelaar",
				"title": "Behandelaar",
				"description": "",
				"fields": [
					{
						"name": "case.assignee.id",
						"type": "spot-enlighter",
						"data": {
							"label": "naam",
							"resolve": "id",
							"restrict": "contact/medewerker",
							"multi": true
						}
					}
				]
			},
			{
				"name": "coordinator",
				"title": "Coordinator",
				"description": "",
				"fields": [
					{
						"name": "case.coordinator.id",
						"type": "spot-enlighter",
						"data": {
							"label": "naam",
							"resolve": "id",
							"restrict": "contact/medewerker",
							"multi": true
						}
					}
				]
			},
			{
				"name": "date-range",
				"title": "Periode",
				"description": "",
				"fields": [
					{
						"name": "date",
						"type": "date-range",
						"data": {
							"options": [
								{
									"label": "Alles",
									"value": "all"
								},
								{
									"label": "Afgelopen maand",
									"value": "last_month"
								},
								{
									"label": "Deze maand",
									"value": "this_month"
								},
								{
									"label": "Afgelopen week",
									"value": "last_week"
								},
								{
									"label": "Deze week",
									"value": "this_week"
								},
								{
									"label": "Specifieke periode",
									"value": "custom_range"
								}
							]
						},
						"value": null
					},
					{
						"name": "case.date_of_registration",
						"type": "checkbox",
						"default": false,
						"when": "!!date",
						"data": {
							"checkboxlabel": "Registratiedatum",
							"trueValue": "1",
							"falseValue": "0"
						}
					},
					{
						"name": "case.date_of_completion",
						"type": "checkbox",
						"default": false,
						"when": "!!date",
						"data": {
							"checkboxlabel": "Afhandeldatum",
							"trueValue": "1",
							"falseValue": "0"
						}
					}
				],
				"resolve": "getDate($values)"
			},
			{
				"name": "betaalstatus",
				"title": "Betaalstatus",
				"description": "",
				"fields": [
					{
						"name": "case.payment_status",
						"label": "",
						"type": "checkbox-list",
						"data": {
							"options": [
								{
									"label": "Geslaagd",
									"value": "success"
								},
								{
									"label": "Wachten op bevestiging",
									"value": "pending"
								},
								{
									"label": "Niet geslaagd",
									"value": "failed"
								},
								{
									"label": "Later betalen",
									"value": "offline"
								}
							]
						},
						"default": []
					}
				]
			},
			{
				"name": "channel_of_contact",
				"title": "Contactkanaal",
				"description": "",
				"fields": [
					{
						"name": "case.channel_of_contact",
						"label": "",
						"type": "checkbox-list",
						"data": {
							"maxVisible": 6,
							"options": [
								{
									"label": "Behandelaar",
									"value": "behandelaar"
								},
								{
									"label": "Balie",
									"value": "balie"
								},
								{
									"label": "Telefoon",
									"value": "telefoon"
								},
								{
									"label": "Post",
									"value": "post"
								},
								{
									"label": "Email",
									"value": "email"
								},
								{
									"label": "Webformulier",
									"value": "webformulier"
								},
								{
									"label": "Sociale media",
									"value": "sociale media"
								},
								{
									"label": "Externe applicatie",
									"value": "externe applicatie"
								}
							]
						},
						"default": []
					}
				]
			},
			{
				"name": "confidentiality",
				"title": "Vertrouwelijkheid",
				"description": "",
				"fields": [
					{
						"name": "case.confidentiality",
						"label": "",
						"type": "checkbox-list",
						"data": {
							"options": [
								{
									"label": "Openbaar",
									"value": "public"
								},
								{
									"label": "Intern",
									"value": "internal"
								},
								{
									"label": "Vertrouwelijk",
									"value": "confidential"
								}
							]
						},
						"default": []
					}
				]
			},
			{
				"name": "archief_status",
				"title": "Archiefstatus",
				"description": "",
				"fields": [
					{
						"name": "archiefstatus",
						"label": "",
						"type": "checkbox-list",
						"data": {
							"options": [
								{
									"value": "te_vernietigen",
									"label": "Te vernietigen"
								},
								{
									"value": "overdragen",
									"label": "Te bewaren of overdragen"
								}
							]
						},
						"default": []
					}
				]
			},
			{
				"name": "subject",
				"title": "Extra informatie",
				"description": "",
				"fields": [
					{
						"name": "case.subject",
						"label": "",
						"type": "text",
						"default": null
					}
				],
				"resolve": "getMatchingStatement($values)"
			}
		],
		"actions": [
			{
				"name": "submit",
				"type": "submit",
				"label": "Submit"
			}
		],
		"promises": [
			{
				"watch": "aanvrager_type",
				"then": "aanvrager_obj=null"
			}
		]
	},
	"columns": {
		"compact":
			"<zs-case-search-result-compact data-item=\"item\"></zs-case-search-result-compact>",
		"templates": {
			"case.status": {
				"template":
					"<zs-case-status-icon data-status=\"item.values['case.status']\" archival-state=\"item.values['case.archival_state']\" data-destructable=\"item.values['case.destructable']\" data-updates=\"item.values['case.num_unaccepted_files'] + item.values['case.num_unaccepted_updates']\">",
				"locked": true,
				"sort": true,
				"dynamic": true,
				"data": {
					"columns": [
						"case.status",
						"case.num_unaccepted_updates",
						"case.num_unaccepted_files"
					]
				}
			},
			"case.number": {
				"label": "#",
				"template": "<a href='/intern/zaak/<[item.values[\"case.number\"]]>'><[item.values['case.number']]></a>",
				"sort": {
					"type": "numeric"
				},
				"locked": true
			},
			"case.progress_status": {
				"label": "Voortgang",
				"template": "<zs-progress-bar data-progress=\"<[item.values['case.progress_status']]>\"></zs-progress-bar>",
				"sort": {
					"type": "numeric"
				}
			},
			"case.casetype.name": {
				"label": "Zaaktype",
				"sort": true
			},
			"case.subject": {
				"label": "Extra informatie",
				"template": "<a href='/intern/zaak/<[item.values[\"case.number\"]]>' data-zs-truncate=\"<[item.values['case.subject']]>\" zs-truncate-length=\"100\"></a>",
				"sort": true,
				"dynamic": true
			},
			"case.days_left": {
				"label": "Dagen",
				"template": "<span data-ng-show=\"[ 'resolved', 'overdragen' ].indexOf(item.values['case.status'])===-1\" data-ng-class=\"{'urgentie_high': item.values['case.days_left'] < 0, 'urgentie_low': item.values['case.days_left'] >= 0 }\"><[item.values['case.days_left']]></span>",
				"dynamic": true
			},
			"case.confidentiality": { 
				"template": "<[item.values['case.confidentiality'].mapped]>"
			},
			"case.payment_status": {
				"template": "<[item.values['case.payment_status'].mapped]>"
			},
			"case.requestor.name": {
				"label": "Aanvrager"
			},
			"actions": {
				"label": "",
				"locked": true,
				"sort": false,
				"template": "<zs-dropdown-menu options='item.itemActions' empty-label='Geen acties beschikbaar' button-icon='dots-vertical' on-open='handleActionMenuClick(item, $event)' is-fixed=\"true\" button-style='{ btn: true, \"btn-small\": true, \"btn-secondary\": true, \"btn-flat\": true, \"btn-open\": zsDropdownMenu.isMenuOpen() }'></zs-dropdown-menu>",
				"data": {
					"columns": []
				},
				"dynamic": true
			},
			"case.destruction_blocked": {
				"label": "Vernietiging geblokkeerd",
				"templateUrl": "/html/widget/search/column-destruction-blocked.html",
				"sort": false
			}
		},
		"default": [
			"case.status",
			"case.number",
			"case.progress_status",
			"case.casetype.name",
			"case.subject",
			"case.requestor.name",
			"case.days_left",
			"actions"
		],
		"extra": [
			"case.destruction_blocked"
		],
		"always": [
			"case.status",
			"case.number",
			"case.casetype.name",
			"case.subject",
			"case.requestor.name",
			"case.days_left",
			"case.archival_state",
			"case.destructable"
		]
	},
	"resolve": "id",
	"map": {
		"resolve": "values['case.case_location.nummeraanduiding'].address_data.gps_lat_lon",
		"columns": [
			"case.number",
			"case.casetype.name",
			"case.case_location.nummeraanduiding",
			"case.casetype.description",
			"case.casetype.name",
			"case.requestor.name",
			"case.assignee"
		],
		"mapping": {
			"id": "values['case.number']",
			"description": "values['case.casetype.description']",
			"zaaktype": "values['case.casetype.name']",
			"address": "values['case.case_location.nummeraanduiding'].human_identifier",
			"requestor": "values['case.requestor.name']",
			"manager": "values['case.assignee']",
			"url": "'/intern/zaak/' + values['case.number']"
		}
	},
	"sort": {
		"by": "case.number",
		"order": "desc"
	},
	"style": {
		"classes": {
			"crud-table-item-row-error": "values['case.destructable'] && values['case.destruction_blocked']",
			"crud-table-item-row-disabled": "actions.length===1&&actions[0]==='search'",
            "crud-table-item-row-restricted-search": "actions.length===1&&actions[0]==='search'"
		}
	},
	"grouping": [
		{
			"label": "Alle resultaten",
			"by": null
		},
		{
			"label": "Zaaktype",
			"by": "case.casetype.id",
			"resolve": "case.casetype.name"
		},
		{
			"label": "Behandelaar",
			"by": "case.assignee.id",
			"resolve": "case.assignee"
		},
		{
			"label": "Afdeling",
			"by": "case.casetype.department",
			"resolve": "case.casetype.department"
		},
		{
			"label": "Status",
			"by": "case.status",
			"resolve": "case.status",
			"translations": {
				"open": "In behandeling",
				"new": "Nieuw",
				"stalled": "Opgeschort",
				"resolved": "Afgehandeld",
				"deleted": "Vernietigd"
			}
		},
		{
			"label": "Contactkanaal",
			"by": "case.channel_of_contact",
			"resolve": "case.channel_of_contact",
			"translations": {
				"webformulier": "Webformulier",
				"telefoon": "Telefoon",
				"balie": "Balie",
				"behandelaar": "Behandelaar",
				"email": "Email",
				"post": "Post"
			}
		}
	]
}
